EDA_Project
…
Contribution amounts by candidate and contributors count by candidate.

## # A tibble: 25 x 3
##    cand_nm                   total_contb_amt total_contb_ct
##    <fct>                               <dbl>          <int>
##  1 Bush, Jeb                        3667657.           3578
##  2 Carson, Benjamin S.              3045078.          23694
##  3 Christie, Christopher J.          274005             198
##  4 Clinton, Hillary Rodham         22623321.         203942
##  5 Cruz, Rafael Edward 'Ted'       19751236.         138805
##  6 Fiorina, Carly                    623493.           2541
##  7 Gilmore, James S III               11800               5
##  8 Graham, Lindsey O.                150986             177
##  9 Huckabee, Mike                    310856.            733
## 10 Jindal, Bobby                      45160              58
## # ... with 15 more rows
…
